PIB
1570,519
1568,653
1567,966
1590,938
1616,069
1644,637
1654,061
1657,988
1633,249
1628,439
1646,698
1629,911
1696,765
1747,322
1815,845
1848,928
1871,311
1903,118
1941,109
1944,447
1964,670
1966,044
1978,806
2043,795
2082,277
2098,083
2085,419
2052,532
2042,420
2044,286
2066,865
2107,801
2168,470
2204,008
2233,360
2245,337
2234,833
2252,504
2249,755
2286,470
2300,312
2294,618
2317,001
2292,459
2230,219
2243,374
2295,207
2348,023
2392,886
2455,813
2453,948
2462,587
2517,365
2504,800
2508,726
2476,232
2491,154
2537,981
2579,114
2631,831
2679,149
2708,404
2733,339
2740,014
2775,944
2810,598
2863,512
2885,796
2950,490
2984,751
3025,492
3033,640
3108,151
3150,167
3214,076
3291,826
3372,325
3384,007
3406,292
3433,681
3464,114
3464,310
3491,798
3518,205
3590,655
3651,618
3676,455
3691,966
3750,180
3760,881
3784,245
3766,280
3759,997
3767,066
3800,541
3759,801
3864,057
3885,851
3916,676
3927,867
3997,666
4092,105
4131,079
4198,718
4305,330
4355,102
4331,934
4373,263
4335,370
4347,936
4305,821
4288,936
4237,593
4268,614
4340,867
4397,806
4496,761
4530,335
4552,030
4584,623
4639,990
4731,092
4815,812
4815,321
4830,832
5021,183
5070,661
5137,416
5147,430
5152,338
5189,446
5204,662
5221,253
5115,917
5107,376
5202,110
5307,544
5266,117
5329,829
5263,368
5177,077
5204,859
5185,225
5189,839
5253,845
5372,336
5478,360
5590,469
5699,830
5797,902
5854,251
5902,354
5956,937
6007,789
6101,737
6148,564
6207,368
6232,008
6291,695
6323,404
6365,028
6435,023
6493,434
6606,820
6639,118
6723,544
6759,376
6848,612
6918,116
6963,471
7013,144
7030,913
7112,100
7130,261
7130,752
7076,857
7040,828
7086,477
7120,738
7154,116
7228,234
7297,935
7369,500
7450,687
7459,718
7497,514
7535,996
7637,406
7715,058
7815,682
7859,465
7951,647
7973,735
7987,970
8053,056
8111,958
8169,191
8303,094
8372,697
8470,572
8536,051
8665,831
8773,720
8838,414
8936,191
8995,289
9098,858
9237,081
9315,518
9392,581
9502,237
9671,089
9695,631
9847,892
9836,603
9887,749
9875,576
9905,911
9871,060
9910,034
9977,280
10031,568
10090,666
10095,771
10126,007
10212,691
10398,723
10466,951
10543,621
10634,232
10728,671
10796,408
10878,380
10954,069
11074,326
11107,213
11238,662
11306,694
11336,734
11395,538
11412,619
11520,115
11658,927
11675,714